{
    "id": 1,
    "name": "quiz 3: Hard",
    "description": "Quiz",
    "questions": [
      {
          "id": 1010,
          "name": "What is the right design?",
          "questionTypeId": 1,
          "info": "Placeholder text baseline",
          "options": [
              {
                  "id": 1055,
                  "questionId": 1010,
                  "src": "/assets/img/hard/1T.png",
                  "isAnswer": true
              },
              {
                  "id": 1056,
                  "questionId": 1010,
                  "src": "/assets/img/hard/1F.png",
                  "isAnswer": false
              }
          ],
          "questionType": {
              "id": 1,
              "name": "Multiple Choice",
              "isActive": true
          }
      },
      {
        "id": 1011,
        "name": "What is the right design?",
        "questionTypeId": 1,
        "info": "Type in text block",
        "options": [
          {
            "id": 1055,
            "questionId": 1011,
            "src": "/assets/img/hard/2T.png",
            "isAnswer": true
          },
          {
            "id": 1057,
            "questionId": 1011,
            "src": "/assets/img/hard/2F.png",
            "isAnswer": false
          }
        ],
        "questionType": {
          "id": 1,
          "name": "Multiple Choice",
          "isActive": true
        }
      },
      {
        "id": 1011,
        "name": "What is the right design?",
        "questionTypeId": 1,
        "info": "Subtitle text separator",
        "options": [
          {
            "id": 1055,
            "questionId": 1011,
            "src": "/assets/img/hard/3F.png",
            "isAnswer": false
          },
          {
            "id": 1057,
            "questionId": 1011,
            "src": "/assets/img/hard/3T.png",
            "isAnswer": true
          }
        ],
        "questionType": {
          "id": 1,
          "name": "Multiple Choice",
          "isActive": true
        }
      },
      {
        "id": 1011,
        "name": "What is the right design?",
        "questionTypeId": 1,
        "info": "Text letter spacing",
        "options": [
          {
            "id": 1055,
            "questionId": 1011,
            "src": "/assets/img/hard/4T.png",
            "isAnswer": true
          },
          {
            "id": 1057,
            "questionId": 1011,
            "src": "/assets/img/hard/4F.png",
            "isAnswer": false
          }
        ],
        "questionType": {
          "id": 1,
          "name": "Multiple Choice",
          "isActive": true
        }
      },
      {
        "id": 1011,
        "name": "What is the right design?",
        "questionTypeId": 1,
        "info": "Subtitle typography",
        "options": [
          {
            "id": 1055,
            "questionId": 1011,
            "src": "/assets/img/hard/5F.png",
            "isAnswer": false
          },
          {
            "id": 1057,
            "questionId": 1011,
            "src": "/assets/img/hard/5T.png",
            "isAnswer": true
          }
        ],
        "questionType": {
          "id": 1,
          "name": "Multiple Choice",
          "isActive": true
        }
      },
      {
        "id": 1011,
        "name": "What is the right design?",
        "questionTypeId": 1,
        "info": "Spacing between buttons",
        "options": [
          {
            "id": 1055,
            "questionId": 1011,
            "src": "/assets/img/hard/6T.png",
            "isAnswer": true
          },
          {
            "id": 1057,
            "questionId": 1011,
            "src": "/assets/img/hard/6F.png",
            "isAnswer": false
          }
        ],
        "questionType": {
          "id": 1,
          "name": "Multiple Choice",
          "isActive": true
        }
      },
      {
        "id": 1011,
        "name": "What is the right design?",
        "questionTypeId": 1,
        "info": "Separator line length",
        "options": [
          {
            "id": 1055,
            "questionId": 1011,
            "src": "/assets/img/hard/7F.png",
            "isAnswer": false
          },
          {
            "id": 1057,
            "questionId": 1011,
            "src": "/assets/img/hard/7T.png",
            "isAnswer": true
          }
        ],
        "questionType": {
          "id": 1,
          "name": "Multiple Choice",
          "isActive": true
        }
      },
      {
        "id": 1011,
        "name": "What is the right design?",
        "questionTypeId": 1,
        "info": "Button padding",
        "options": [
          {
            "id": 1055,
            "questionId": 1011,
            "src": "/assets/img/hard/8T.png",
            "isAnswer": true
          },
          {
            "id": 1057,
            "questionId": 1011,
            "src": "/assets/img/hard/8F.png",
            "isAnswer": false
          }
        ],
        "questionType": {
          "id": 1,
          "name": "Multiple Choice",
          "isActive": true
        }
      },
      {
        "id": 1011,
        "name": "What is the right design?",
        "questionTypeId": 1,
        "info": "Spacing between icon and text",
        "options": [
          {
            "id": 1055,
            "questionId": 1011,
            "src": "/assets/img/hard/9F.png",
            "isAnswer": false
          },
          {
            "id": 1057,
            "questionId": 1011,
            "src": "/assets/img/hard/9T.png",
            "isAnswer": true
          }
        ],
        "questionType": {
          "id": 1,
          "name": "Multiple Choice",
          "isActive": true
        }
      },
      {
        "id": 1011,
        "name": "What is the right design?",
        "questionTypeId": 1,
        "info": "Activity indicator position",
        "options": [
          {
            "id": 1055,
            "questionId": 1011,
            "src": "/assets/img/hard/10T.png",
            "isAnswer": true
          },
          {
            "id": 1057,
            "questionId": 1011,
            "src": "/assets/img/hard/10F.png",
            "isAnswer": false
          }
        ],
        "questionType": {
          "id": 1,
          "name": "Multiple Choice",
          "isActive": true
        }
      }
    ]
}
